---student.dtd ---------------------------------------------------

<?xml version="1.0" encoding="UTF-8" ?>

<!ELEMENT student (subject*,average?)>

<!ATTLIST student

lastname CDATA #REQUIRED

>

<!ELEMENT subject EMPTY>

<!ATTLIST subject

title CDATA #REQUIRED

mark (1|2|3|4|5) #REQUIRED

>

<!ELEMENT average (#PCDATA)>

------------------------------------------------------------------